<?xml version="1.0" encoding="UTF-8" standalone="no"?>
<svg
   xmlns:dc="http://purl.org/dc/elements/1.1/"
   xmlns:cc="http://creativecommons.org/ns#"
   xmlns:rdf="http://www.w3.org/1999/02/22-rdf-syntax-ns#"
   xmlns:svg="http://www.w3.org/2000/svg"
   xmlns="http://www.w3.org/2000/svg"
   xmlns:sodipodi="http://sodipodi.sourceforge.net/DTD/sodipodi-0.dtd"
   xmlns:inkscape="http://www.inkscape.org/namespaces/inkscape"
   height="576"
   width="576"
   xml:space="preserve"
   viewBox="0 0 576 576"
   y="0px"
   x="0px"
   version="1.1"
   id="svg4089"
   sodipodi:docname="left.svg"
   inkscape:version="0.92.4 (5da689c313, 2019-01-14)"><metadata
   id="metadata4095"><rdf:RDF><cc:Work
       rdf:about=""><dc:format>image/svg+xml</dc:format><dc:type
         rdf:resource="http://purl.org/dc/dcmitype/StillImage" /><dc:title /><cc:license
         rdf:resource="http://creativecommons.org/publicdomain/zero/1.0/" /></cc:Work><cc:License
       rdf:about="http://creativecommons.org/publicdomain/zero/1.0/"><cc:permits
         rdf:resource="http://creativecommons.org/ns#Reproduction" /><cc:permits
         rdf:resource="http://creativecommons.org/ns#Distribution" /><cc:permits
         rdf:resource="http://creativecommons.org/ns#DerivativeWorks" /></cc:License></rdf:RDF></metadata><defs
   id="defs4093" /><sodipodi:namedview
   pagecolor="#ffffff"
   bordercolor="#666666"
   borderopacity="1"
   objecttolerance="10000"
   gridtolerance="10000"
   guidetolerance="10000"
   inkscape:pageopacity="0"
   inkscape:pageshadow="2"
   inkscape:window-width="1600"
   inkscape:window-height="1171"
   id="namedview4091"
   showgrid="true"
   inkscape:zoom="1.4142136"
   inkscape:cx="244.86369"
   inkscape:cy="326.57715"
   inkscape:window-x="1600"
   inkscape:window-y="0"
   inkscape:window-maximized="1"
   inkscape:current-layer="svg4089"
   scale-x="1"
   inkscape:snap-bbox="true"><inkscape:grid
     type="xygrid"
     id="grid4097"
     spacingx="12"
     spacingy="12"
     empspacing="4" /></sodipodi:namedview>
<rect
   style="fill:#ffffff;fill-opacity:1;stroke:#008fff;stroke-width:5;stroke-linecap:butt;stroke-linejoin:round;stroke-miterlimit:12;stroke-dasharray:none;stroke-opacity:1"
   id="rect832-5"
   width="552"
   height="552"
   x="12"
   y="12"
   ry="60"
   rx="60"
   inkscape:label="border" /><rect
   style="fill:#008fff;fill-opacity:1;stroke:#000000;stroke-width:0;stroke-linecap:round;stroke-linejoin:round;stroke-miterlimit:12;stroke-dasharray:none;stroke-opacity:1"
   id="rect832"
   width="503.99997"
   height="503.99997"
   x="36"
   y="36"
   ry="35.999996"
   rx="35.999996"
   inkscape:label="background" /><path
   style="fill:none;fill-rule:evenodd;stroke:#fdfdfd;stroke-width:48;stroke-linecap:round;stroke-linejoin:miter;stroke-miterlimit:4;stroke-dasharray:none;stroke-opacity:1"
   d="M 383.99661,480 V 288"
   id="path1144"
   inkscape:connector-curvature="0"
   inkscape:label="base"
   sodipodi:nodetypes="cc" /><path
   style="fill:none;fill-opacity:1;stroke:#fdfdfd;stroke-width:48;stroke-linecap:butt;stroke-linejoin:miter;stroke-miterlimit:4;stroke-dasharray:none;stroke-opacity:1"
   id="path1142"
   sodipodi:type="arc"
   sodipodi:cx="-287.99661"
   sodipodi:cy="288"
   sodipodi:rx="96"
   sodipodi:ry="96"
   sodipodi:start="3.1415927"
   sodipodi:end="4.712389"
   d="m -383.99661,288 a 96,96 0 0 1 96,-96"
   inkscape:label="turn"
   sodipodi:open="true"
   transform="scale(-1,1)" /><path
   style="fill:none;fill-rule:evenodd;stroke:#fdfdfd;stroke-width:48;stroke-linecap:butt;stroke-linejoin:round;stroke-miterlimit:4;stroke-dasharray:none;stroke-opacity:1"
   d="m 287.99661,192 h -96"
   id="path1146"
   inkscape:connector-curvature="0"
   inkscape:label="top"
   sodipodi:nodetypes="cc" /><path
   style="fill:none;fill-rule:evenodd;stroke:#fdfdfd;stroke-width:48;stroke-linecap:round;stroke-linejoin:round;stroke-miterlimit:4;stroke-dasharray:none;stroke-opacity:1"
   d="m 263.99661,120 -72,72 c 24,24 48,48 72,72"
   id="path5214"
   inkscape:connector-curvature="0"
   sodipodi:nodetypes="ccc"
   inkscape:label="pointer" /></svg>